{
  "min_packer_version": "1.3.3",
  "variables": {
    "qemu_output_dir": "qemu-images",
    "qemu_output_name": "debian-stretch.qcow2",
    "qemu_source_checksum_url": "https://github.com/multani/packer-qemu-debian/releases/download/9.9.0-1/SHA256SUMS",
    "qemu_source_iso": "https://github.com/multani/packer-qemu-debian/releases/download/9.9.0-1/debian-9.9.0-1.qcow2",
    "qemu_ssh_password": "debian",
    "qemu_ssh_username": "debian"
  },

  "builders": [
    {
      "type": "qemu",
      "qemuargs": [
        ["-boot", "c"],
        ["-m", "512M"],
        ["-name", "debian-stretch.qcow2"],
        ["-machine", "type=pc,accel=kvm"],
        ["-netdev", "user,id=user.0,hostfwd=tcp::2228-:22"],
        ["-device", "virtio-net,netdev=user.0"],
        ["-drive", "file=qemu-images/debian-stretch.qcow2,if=virtio,cache=writeback,discard=ignore,format=qcow2"],
        ["-nographic", ""]
      ],

      "iso_url": "{{ user `qemu_source_iso` }}",
      "iso_checksum_url": "{{ user `qemu_source_checksum_url` }}",
      "iso_checksum_type": "sha256",

      "disk_image": true,
      "accelerator": "kvm",
      "boot_wait": "1s",
      "format": "qcow2",
      "use_backing_file": true,

      "disk_size": 8000,

      "headless": true,
      "shutdown_command": "echo '{{ user `qemu_ssh_password` }}'  | sudo -S /sbin/shutdown -hP now",

      "ssh_host_port_max": 2229,
      "ssh_host_port_min": 2222,
      "ssh_password": "{{ user `qemu_ssh_password` }}",
      "ssh_username": "{{ user `qemu_ssh_username` }}",
      "ssh_wait_timeout": "1000s",

      "output_directory": "{{ user `qemu_output_dir` }}",
      "vm_name": "{{ user `qemu_output_name` }}"
    }
  ],

  "provisioners": [
    {
      "type": "shell",
      "inline": [
        "echo '  *** Running my favorite provisioner'"
      ]
    }
  ]
}
